{
    "host": "http://localhost:3000",
    "port": 3000,
    "authentication": false,
    "applicationName": "wedding-app-back",
    "databaseConfig": {
        "service": "on",
        "dialect": "postgres",
        "database": "WEDDING",
        "instanceName": "",
        "username": "root",
        "password": "root",
        "host": "localhost",
        "port": "5432"
    }
}